L07 - Wrangling and Data Verbs
…
group_by example

Number of cities in WorldCities broken down by
country.

WorldCities %>% 
  group_by(country) %>%
  summarise(count = n())

## # A tibble: 243 × 2
##    country count
##    <chr>   <int>
##  1 AD          2
##  2 AE         12
##  3 AF         50
##  4 AG          1
##  5 AI          1
##  6 AL         20
##  7 AM         17
##  8 AO         27
##  9 AR        201
## 10 AS          1
## # ℹ 233 more rows
…
Now lets look at some tidyverse functions.

#Filter 
dat.football %>%
  filter(Team == "Denver Broncos")

## # A tibble: 58 × 6
##    PlayerName     Position   Salary NextSalary SalaryCap Team          
##    <chr>          <chr>       <dbl>      <dbl>     <dbl> <chr>         
##  1 Peyton Manning QB       18000000   20000000  18000000 Denver Broncos
##  2 Elvis Dumervil DE       14000000   12000000  14500000 Denver Broncos
##  3 Champ Bailey   CB        8000000    9000000   9500000 Denver Broncos
##  4 Brian Dawkins  S         6000000    6000000   9156000 Denver Broncos
##  5 D.J. Williams  LB        5000000    6000000   5000000 Denver Broncos
##  6 Andre' Goodman CB        4620000    3960000   5580000 Denver Broncos
##  7 Ty Warren      DT        4000000          0   5250000 Denver Broncos
##  8 Chris Kuper    G         3500000    4500000   3500000 Denver Broncos
##  9 Ryan Clady     T         3500000          0   4010000 Denver Broncos
## 10 Matt Prater    K         2665000          0   2665000 Denver Broncos
## # ℹ 48 more rows

#Arrange 
dat.football %>%
  arrange(Salary) #lowest to highest

## # A tibble: 1,501 × 6
##    PlayerName               Position Salary NextSalary SalaryCap Team           
##    <chr>                    <chr>     <dbl>      <dbl>     <dbl> <chr>          
##  1 Richard Dickson (buyout) TE         2333          0      2333 Detroit Lions  
##  2 Kevin Haslam (buyout)    T          3333          0      3333 Jacksonville J…
##  3 Curtis Painter (buyout)  QB        22750          0     22750 Indianapolis C…
##  4 Jon Corto (Buyout)       S         25000          0     25000 Buffalo Bills  
##  5 George Selvie (buyout)   DE        27976          0     27976 St. Louis Rams 
##  6 David Buehler (buyout)   K         37125          0     37125 Dallas Cowboys 
##  7 Markell Carter           DE        70539          0    390000 New England Pa…
##  8 Morgan Trent (Buyout)    CB        84000          0     84000 Cincinnati Ben…
##  9 Anthony Herrera (buyout) G        100000          0    100000 Minnesota Viki…
## 10 Jordan Todman (buyout)   RB       128094          0    128094 San Diego Char…
## # ℹ 1,491 more rows

dat.football %>%
  arrange(desc(Salary)) #highest to lowest

## # A tibble: 1,501 × 6
##    PlayerName       Position   Salary NextSalary SalaryCap Team               
##    <chr>            <chr>       <dbl>      <dbl>     <dbl> <chr>              
##  1 Peyton Manning   QB       18000000   20000000  18000000 Denver Broncos     
##  2 Drew Brees       QB       15760000          0  15760000 New Orleans Saints 
##  3 Dwight Freeney   DE       14035000          0  19035000 Indianapolis Colts 
##  4 Elvis Dumervil   DE       14000000   12000000  14500000 Denver Broncos     
##  5 Michael Vick     QB       12500000   12500000  13900000 Philadelphia Eagles
##  6 Sam Bradford     QB       12000000    9000000  15594800 St. Louis Rams     
##  7 Jared Allen      DE       11619850   14280612  14203183 Minnesota Vikings  
##  8 Matthew Stafford QB       11500000    1200000  17258750 Detroit Lions      
##  9 Matt Ryan        QB       11500000   10000000  13000000 Atlanta Falcons    
## 10 Tamba Hali       DE       11250000   12250000  14250000 Kansas City Chiefs 
## # ℹ 1,491 more rows

#Select
dat.football %>%
  select(PlayerName, Position)

## # A tibble: 1,501 × 2
##    PlayerName              Position
##    <chr>                   <chr>   
##  1 Tony Romo               QB      
##  2 Anthony Spencer         LB      
##  3 Jay Ratliff             DE      
##  4 Terence Newman (buyout) CB      
##  5 Orlando Scandrick       CB      
##  6 DeMarcus Ware           LB      
##  7 Jason Witten            TE      
##  8 Marcus Spears           DE      
##  9 Kenyon Coleman          DE      
## 10 Jason Hatcher           DE      
## # ℹ 1,491 more rows

#Rename 
dat.football %>%
  rename(TeamName = Team)

## # A tibble: 1,501 × 6
##    PlayerName              Position  Salary NextSalary SalaryCap TeamName      
##    <chr>                   <chr>      <dbl>      <dbl>     <dbl> <chr>         
##  1 Tony Romo               QB       9000000   11500000  18905000 Dallas Cowboys
##  2 Anthony Spencer         LB       8800000          0   8800000 Dallas Cowboys
##  3 Jay Ratliff             DE       4875000          0   6475000 Dallas Cowboys
##  4 Terence Newman (buyout) CB       4800000          0   4800000 Dallas Cowboys
##  5 Orlando Scandrick       CB       4700000          0   7700000 Dallas Cowboys
##  6 DeMarcus Ware           LB       4500000    5500000  10303000 Dallas Cowboys
##  7 Jason Witten            TE       3641000          0   5841000 Dallas Cowboys
##  8 Marcus Spears           DE       2000000    2000000   2700000 Dallas Cowboys
##  9 Kenyon Coleman          DE       1900000          0   2245000 Dallas Cowboys
## 10 Jason Hatcher           DE       1500000    2000000   2100000 Dallas Cowboys
## # ℹ 1,491 more rows

#Mutate
dat.football %>%
  mutate(PercentOfCap = Salary / SalaryCap * 100)

## # A tibble: 1,501 × 7
##    PlayerName            Position Salary NextSalary SalaryCap Team  PercentOfCap
##    <chr>                 <chr>     <dbl>      <dbl>     <dbl> <chr>        <dbl>
##  1 Tony Romo             QB       9   e6   11500000  18905000 Dall…         47.6
##  2 Anthony Spencer       LB       8.80e6          0   8800000 Dall…        100  
##  3 Jay Ratliff           DE       4.88e6          0   6475000 Dall…         75.3
##  4 Terence Newman (buyo… CB       4.80e6          0   4800000 Dall…        100  
##  5 Orlando Scandrick     CB       4.70e6          0   7700000 Dall…         61.0
##  6 DeMarcus Ware         LB       4.50e6    5500000  10303000 Dall…         43.7
##  7 Jason Witten          TE       3.64e6          0   5841000 Dall…         62.3
##  8 Marcus Spears         DE       2   e6    2000000   2700000 Dall…         74.1
##  9 Kenyon Coleman        DE       1.9 e6          0   2245000 Dall…         84.6
## 10 Jason Hatcher         DE       1.5 e6    2000000   2100000 Dall…         71.4
## # ℹ 1,491 more rows

#Group 
dat.football %>%
  group_by(Team) #doesn't look like it did anything??? 

## # A tibble: 1,501 × 6
## # Groups:   Team [31]
##    PlayerName              Position  Salary NextSalary SalaryCap Team          
##    <chr>                   <chr>      <dbl>      <dbl>     <dbl> <chr>         
##  1 Tony Romo               QB       9000000   11500000  18905000 Dallas Cowboys
##  2 Anthony Spencer         LB       8800000          0   8800000 Dallas Cowboys
##  3 Jay Ratliff             DE       4875000          0   6475000 Dallas Cowboys
##  4 Terence Newman (buyout) CB       4800000          0   4800000 Dallas Cowboys
##  5 Orlando Scandrick       CB       4700000          0   7700000 Dallas Cowboys
##  6 DeMarcus Ware           LB       4500000    5500000  10303000 Dallas Cowboys
##  7 Jason Witten            TE       3641000          0   5841000 Dallas Cowboys
##  8 Marcus Spears           DE       2000000    2000000   2700000 Dallas Cowboys
##  9 Kenyon Coleman          DE       1900000          0   2245000 Dallas Cowboys
## 10 Jason Hatcher           DE       1500000    2000000   2100000 Dallas Cowboys
## # ℹ 1,491 more rows
…
dat.football %>%
  summarize(SdSalary = sd(Salary))

## # A tibble: 1 × 1
##   SdSalary
##      <dbl>
## 1 2099740.

dat.football %>%
  group_by(Team) %>%
  summarise(MeanSalary = mean(Salary), .groups = "keep" )

## # A tibble: 31 × 2
## # Groups:   Team [31]
##    Team               MeanSalary
##    <chr>                   <dbl>
##  1 Arizona Cardinals    1594186.
##  2 Atlanta Falcons      1828407.
##  3 Baltimore Ravens     2156606.
##  4 Buffalo Bills        1315185.
##  5 Carolina Panthers    1353846.
##  6 Chicago Bears        1758006.
##  7 Cincinnati Bengals   1283529.
##  8 Cleveland Browns     1573352.
##  9 Dallas Cowboys       1480814.
## 10 Denver Broncos       1683837.
## # ℹ 21 more rows
…
Pivot wider and Pivot Longer

pivot_wider() and pivot_longer() are two
VERY useful functions in the tidyverse. We do not need them
this week, but I wanted to introduce them if you want to get ahead.

## Pivot Wider 
?pivot_wider

# names_from = new column names 
# value_from = values to fill in in the table
us_rent_income

## # A tibble: 104 × 5
##    GEOID NAME       variable estimate   moe
##    <chr> <chr>      <chr>       <dbl> <dbl>
##  1 01    Alabama    income      24476   136
##  2 01    Alabama    rent          747     3
##  3 02    Alaska     income      32940   508
##  4 02    Alaska     rent         1200    13
##  5 04    Arizona    income      27517   148
##  6 04    Arizona    rent          972     4
##  7 05    Arkansas   income      23789   165
##  8 05    Arkansas   rent          709     5
##  9 06    California income      29454   109
## 10 06    California rent         1358     3
## # ℹ 94 more rows

us_rent_income %>%
  pivot_wider(
    names_from = variable,
    values_from = c(estimate, moe)
  )

## # A tibble: 52 × 6
##    GEOID NAME                 estimate_income estimate_rent moe_income moe_rent
##    <chr> <chr>                          <dbl>         <dbl>      <dbl>    <dbl>
##  1 01    Alabama                        24476           747        136        3
##  2 02    Alaska                         32940          1200        508       13
##  3 04    Arizona                        27517           972        148        4
##  4 05    Arkansas                       23789           709        165        5
##  5 06    California                     29454          1358        109        3
##  6 08    Colorado                       32401          1125        109        5
##  7 09    Connecticut                    35326          1123        195        5
##  8 10    Delaware                       31560          1076        247       10
##  9 11    District of Columbia           43198          1424        681       17
## 10 12    Florida                        25952          1077         70        3
## # ℹ 42 more rows
…
relig_income %>%
  pivot_longer(!religion,  # every column but religion 
               names_to = "income", 
               values_to = "count")

## # A tibble: 180 × 3
##    religion income             count
##    <chr>    <chr>              <dbl>
##  1 Agnostic <$10k                 27
##  2 Agnostic $10-20k               34
##  3 Agnostic $20-30k               60
##  4 Agnostic $30-40k               81
##  5 Agnostic $40-50k               76
##  6 Agnostic $50-75k              137
##  7 Agnostic $75-100k             122
##  8 Agnostic $100-150k            109
##  9 Agnostic >150k                 84
## 10 Agnostic Don't know/refused    96
## # ℹ 170 more rows

# Is the above table Tidy? What is a case?

world_bank_pop

## # A tibble: 1,064 × 20
##    country indicator      `2000`  `2001`  `2002`  `2003`  `2004`  `2005`  `2006`
##    <chr>   <chr>           <dbl>   <dbl>   <dbl>   <dbl>   <dbl>   <dbl>   <dbl>
##  1 ABW     SP.URB.TOTL    4.16e4 4.20e+4 4.22e+4 4.23e+4 4.23e+4 4.24e+4 4.26e+4
##  2 ABW     SP.URB.GROW    1.66e0 9.56e-1 4.01e-1 1.97e-1 9.46e-2 1.94e-1 3.67e-1
##  3 ABW     SP.POP.TOTL    8.91e4 9.07e+4 9.18e+4 9.27e+4 9.35e+4 9.45e+4 9.56e+4
##  4 ABW     SP.POP.GROW    2.54e0 1.77e+0 1.19e+0 9.97e-1 9.01e-1 1.00e+0 1.18e+0
##  5 AFE     SP.URB.TOTL    1.16e8 1.20e+8 1.24e+8 1.29e+8 1.34e+8 1.39e+8 1.44e+8
##  6 AFE     SP.URB.GROW    3.60e0 3.66e+0 3.72e+0 3.71e+0 3.74e+0 3.81e+0 3.81e+0
##  7 AFE     SP.POP.TOTL    4.02e8 4.12e+8 4.23e+8 4.34e+8 4.45e+8 4.57e+8 4.70e+8
##  8 AFE     SP.POP.GROW    2.58e0 2.59e+0 2.61e+0 2.62e+0 2.64e+0 2.67e+0 2.70e+0
##  9 AFG     SP.URB.TOTL    4.31e6 4.36e+6 4.67e+6 5.06e+6 5.30e+6 5.54e+6 5.83e+6
## 10 AFG     SP.URB.GROW    1.86e0 1.15e+0 6.86e+0 7.95e+0 4.59e+0 4.47e+0 5.03e+0
## # ℹ 1,054 more rows
## # ℹ 11 more variables: `2007` <dbl>, `2008` <dbl>, `2009` <dbl>, `2010` <dbl>,
## #   `2011` <dbl>, `2012` <dbl>, `2013` <dbl>, `2014` <dbl>, `2015` <dbl>,
## #   `2016` <dbl>, `2017` <dbl>

world_bank_pop %>%
  pivot_longer(!c(country, indicator),
               names_to = "year",
               values_to = "count")

## # A tibble: 19,152 × 4
##    country indicator   year  count
##    <chr>   <chr>       <chr> <dbl>
##  1 ABW     SP.URB.TOTL 2000  41625
##  2 ABW     SP.URB.TOTL 2001  42025
##  3 ABW     SP.URB.TOTL 2002  42194
##  4 ABW     SP.URB.TOTL 2003  42277
##  5 ABW     SP.URB.TOTL 2004  42317
##  6 ABW     SP.URB.TOTL 2005  42399
##  7 ABW     SP.URB.TOTL 2006  42555
##  8 ABW     SP.URB.TOTL 2007  42729
##  9 ABW     SP.URB.TOTL 2008  42906
## 10 ABW     SP.URB.TOTL 2009  43079
## # ℹ 19,142 more rows
…
